%YAML 1.1
%TAG !u! tag:unity3d.com,2011:
--- !u!162 &1
EditorUserSettings:
  m_ObjectHideFlags: 0
  serializedVersion: 4
  m_ConfigSettings:
    RecentlyUsedSceneGuid-0:
      value: 5307040253565e090c570a7416225944144f4179782d7e6775281930b7e2623b
      flags: 0
    RecentlyUsedSceneGuid-1:
      value: 515250075c0c595e5f5a5e71122159444e4e4a2f7a7d7f602f284d66b4b76661
      flags: 0
    UnityRemoteCompression:
      value: 337f73
      flags: 0
    UnityRemoteDevice:
      value: 2d5e5a03
      flags: 0
    UnityRemoteJoystickSource:
      value: 2f5e570709
      flags: 0
    vcSharedLogLevel:
      value: 0d5e400f0650
      flags: 0
  m_VCAutomaticAdd: 1
  m_VCDebugCom: 0
  m_VCDebugCmd: 0
  m_VCDebugOut: 0
  m_SemanticMergeMode: 2
  m_DesiredImportWorkerCount: 3
  m_StandbyImportWorkerCount: 2
  m_IdleImportWorkerShutdownDelay: 60000
  m_VCShowFailedCheckout: 1
  m_VCOverwriteFailedCheckoutAssets: 1
  m_VCProjectOverlayIcons: 1
  m_VCHierarchyOverlayIcons: 1
  m_VCOtherOverlayIcons: 1
  m_VCAllowAsyncUpdate: 1
  m_VCScanLocalPackagesOnConnect: 1
  m_ArtifactGarbageCollection: 1
